[
    {
        "Operation name": "send_http_sant",
        "Total count": 6553177.0,
        "Actual intensity": 7.8638124E7,
        "Intensity per second": 21844.0,
        "Average response time": 0.57,
        "95percentile response time": 1.34,
        "97percentile response time": 1.51,
        "Errors rate": 1.5,
        "Profile reached percent": 43.7,
        "Planned intensity": 180000000
    }
]