[
    {
        "Operation name": "send_http_sant",
        "Total count": 2750192.0,
        "Actual intensity": 3.3002304E7,
        "Intensity per second": 9167.0,
        "Average response time": 1.06,
        "95percentile response time": 2.33,
        "97percentile response time": 2.56,
        "Errors rate": 3.5,
        "Profile reached percent": 42.3,
        "Planned intensity": 78000000
    }
]